<svg
  xmlns="http://www.w3.org/2000/svg"
  width="24"
  height="24"
  viewBox="0 0 24 24"
  fill="none"
  stroke="currentcolor"
  stroke-width="2"
  stroke-linecap="round"
  stroke-linejoin="round"
>
  <path
    d="m22 5-1.585 14-3.66-3.283c-.567.32-8.786 4.887-14.755.32 0 0 4.677 1.34 9.609-4.943L7.636 7.528z"
  />
</svg>
